Data Analytics for Behavioural Research
…
.right-panel-tidy-text-data-auto[

```
# A tibble: 25 x 2
   line  word 
   <chr> <chr>
 1 1     i    
 2 1     love 
 3 1     r    
 4 2     r    
 5 2     is   
 6 2     magic
 7 3     it   
 8 3     is   
 9 3     hard 
10 3     and  
# ... with 15 more rows
```
…
